<svg width="24" height="24" viewBox='0 0 24 24' xmlns='http://www.w3.org/2000/svg'>
    <g fill="none" fill-rule='evenodd'>
        <path d='M0 0h24v24H0z' />
        <path
            d='M12 2C6.488 2 2 6.488 2 12s4.488 10 10 10 10-4.488 10-10S17.512 2 12 2zm0 2c4.43 0 8 3.57 8 8s-3.57 8-8 8-8-3.57-8-8 3.57-8 8-8zM8.707 7.293 7.293 8.707 10.586 12l-3.293 3.293 1.414 1.414L12 13.414l3.293 3.293 1.414-1.414L13.414 12l3.293-3.293-1.414-1.414L12 10.586 8.707 7.293z'
            fill='#616161'
            fill-rule='nonzero'
        />
    </g>
</svg>